…
``` r
#Assigning and making the new tibble
van_trees2 <-
(vancouver_trees %>% 
   select(tree_id, genus_name, species_name, common_name, neighbourhood_name, height_range_id, diameter, date_planted, longitude, latitude))

#Show the new tibble
print(van_trees2)
```

    ## # A tibble: 146,611 × 10
    ##    tree_id genus_name speci…¹ commo…² neigh…³ heigh…⁴ diame…⁵ date_pla…⁶ longi…⁷
    ##      <dbl> <chr>      <chr>   <chr>   <chr>     <dbl>   <dbl> <date>       <dbl>
    ##  1  149556 ULMUS      AMERIC… BRANDO… MARPOLE       2    10   1999-01-13   -123.
    ##  2  149563 ZELKOVA    SERRATA JAPANE… MARPOLE       4    10   1996-05-31   -123.
    ##  3  149579 STYRAX     JAPONI… JAPANE… KENSIN…       3     4   1993-11-22   -123.
    ##  4  149590 FRAXINUS   AMERIC… AUTUMN… KENSIN…       4    18   1996-04-29   -123.
    ##  5  149604 ACER       CAMPES… HEDGE … KENSIN…       2     9   1993-12-17   -123.
    ##  6  149616 PYRUS      CALLER… CHANTI… MARPOLE       2     5   NA           -123.
    ##  7  149617 ACER       PLATAN… COLUMN… KENSIN…       3    15   1993-12-16   -123.
    ##  8  149618 ACER       PLATAN… COLUMN… KENSIN…       3    14   1993-12-16   -123.
    ##  9  149619 ACER       PLATAN… COLUMN… KENSIN…       2    16   1993-12-16   -123.
    ## 10  149625 FRAXINUS   AMERIC… AUTUMN… KENSIN…       2     7.5 1993-12-03   -123.
    ## # … with 146,601 more rows, 1 more variable: latitude <dbl>, and abbreviated
    ## #   variable names ¹​species_name, ²​common_name, ³​neighbourhood_name,
    ## #   ⁴​height_range_id, ⁵​diameter, ⁶​date_planted, ⁷​longitude
…
**2) Are certain types of trees planted in some neighborhoods versus
others?**

``` r
#Computing the number of observations for at least one of my variables. Specifically, how many different tree species have been planted in each neighborhood
(species_per_neighbourhood <- 
  van_trees2 %>%
  group_by(neighbourhood_name) %>%
  summarize(species = n_distinct(common_name)))
```

    ## # A tibble: 22 × 2
    ##    neighbourhood_name       species
    ##    <chr>                      <int>
    ##  1 ARBUTUS-RIDGE                260
    ##  2 DOWNTOWN                     168
    ##  3 DUNBAR-SOUTHLANDS            364
    ##  4 FAIRVIEW                     223
    ##  5 GRANDVIEW-WOODLAND           310
    ##  6 HASTINGS-SUNRISE             347
    ##  7 KENSINGTON-CEDAR COTTAGE     323
    ##  8 KERRISDALE                   284
    ##  9 KILLARNEY                    237
    ## 10 KITSILANO                    336
    ## # … with 12 more rows
…
**3) How has species planted changed over time? **

``` r
#Computing the number of observations for at least one of my categorical variables. Specifically, per year, how many different species were planted. 
(species_per_year <- 
  van_trees2 %>%
  group_by(year_planted) %>%
  summarize(species = n_distinct(common_name)))
```

    ## # A tibble: 32 × 2
    ##    year_planted species
    ##           <dbl>   <int>
    ##  1         1989      10
    ##  2         1990      41
    ##  3         1991      36
    ##  4         1992      59
    ##  5         1993      73
    ##  6         1994      80
    ##  7         1995      98
    ##  8         1996     114
    ##  9         1997     108
    ## 10         1998     139
    ## # … with 22 more rows
…
