…
<!--------------------------- Start your work below --------------------------->

``` r
#Untidying my data

van_trees3 <- van_trees2 %>% 
    select(tree_id, common_name, diameter, year_planted) #creating a smaller table to untidy

untidy <- van_trees3 %>% 
    pivot_wider(names_from = year_planted,
                values_from = diameter)
untidy
```

    ## # A tibble: 146,611 × 34
    ##    tree_id commo…¹ `1999` `1996` `1993`  `NA` `1997` `1998` `2000` `2016` `1995`
    ##      <dbl> <chr>    <dbl>  <dbl>  <dbl> <dbl>  <dbl>  <dbl>  <dbl>  <dbl>  <dbl>
    ##  1  149556 BRANDO…     10     NA   NA      NA     NA     NA     NA     NA     NA
    ##  2  149563 JAPANE…     NA     10   NA      NA     NA     NA     NA     NA     NA
    ##  3  149579 JAPANE…     NA     NA    4      NA     NA     NA     NA     NA     NA
    ##  4  149590 AUTUMN…     NA     18   NA      NA     NA     NA     NA     NA     NA
    ##  5  149604 HEDGE …     NA     NA    9      NA     NA     NA     NA     NA     NA
    ##  6  149616 CHANTI…     NA     NA   NA       5     NA     NA     NA     NA     NA
    ##  7  149617 COLUMN…     NA     NA   15      NA     NA     NA     NA     NA     NA
    ##  8  149618 COLUMN…     NA     NA   14      NA     NA     NA     NA     NA     NA
    ##  9  149619 COLUMN…     NA     NA   16      NA     NA     NA     NA     NA     NA
    ## 10  149625 AUTUMN…     NA     NA    7.5    NA     NA     NA     NA     NA     NA
    ## # … with 146,601 more rows, 23 more variables: `1994` <dbl>, `2007` <dbl>,
    ## #   `2005` <dbl>, `2004` <dbl>, `2009` <dbl>, `2008` <dbl>, `2010` <dbl>,
    ## #   `2006` <dbl>, `2012` <dbl>, `2014` <dbl>, `2013` <dbl>, `2002` <dbl>,
    ## #   `2001` <dbl>, `2011` <dbl>, `2015` <dbl>, `2019` <dbl>, `2017` <dbl>,
    ## #   `1989` <dbl>, `1991` <dbl>, `2003` <dbl>, `1990` <dbl>, `2018` <dbl>,
    ## #   `1992` <dbl>, and abbreviated variable name ¹​common_name

``` r
#Re-tidying my data
retidyed <- untidy %>% 
    pivot_longer(cols = c(-tree_id, -common_name),
                 names_to = "year_planted",
                 values_to = "diameter",  
                 values_drop_na = TRUE)
retidyed
```

    ## # A tibble: 146,611 × 4
    ##    tree_id common_name           year_planted diameter
    ##      <dbl> <chr>                 <chr>           <dbl>
    ##  1  149556 BRANDON ELM           1999             10  
    ##  2  149563 JAPANESE ZELKOVA      1996             10  
    ##  3  149579 JAPANESE SNOWBELL     1993              4  
    ##  4  149590 AUTUMN APPLAUSE ASH   1996             18  
    ##  5  149604 HEDGE MAPLE           1993              9  
    ##  6  149616 CHANTICLEER PEAR      NA                5  
    ##  7  149617 COLUMNAR NORWAY MAPLE 1993             15  
    ##  8  149618 COLUMNAR NORWAY MAPLE 1993             14  
    ##  9  149619 COLUMNAR NORWAY MAPLE 1993             16  
    ## 10  149625 AUTUMN APPLAUSE ASH   1993              7.5
    ## # … with 146,601 more rows
…
<!--------------------------- Start your work below --------------------------->

``` r
# I first want to see which species were the most planted as we do not need all 634 tree types in our analysis. I will select the top 10 in the next code chunk.

(species_by_numbers <- van_trees2 %>%
  group_by(common_name) %>%
  summarize(n = n()) %>% arrange(desc(n), .by_group = TRUE))
```

    ## # A tibble: 634 × 2
    ##    common_name                     n
    ##    <chr>                       <int>
    ##  1 KWANZAN FLOWERING CHERRY    10529
    ##  2 PISSARD PLUM                 8692
    ##  3 NORWAY MAPLE                 5614
    ##  4 CRIMEAN LINDEN               4427
    ##  5 PYRAMIDAL EUROPEAN HORNBEAM  3409
    ##  6 NIGHT PURPLE LEAF PLUM       3250
    ##  7 RED MAPLE                    2806
    ##  8 KOBUS MAGNOLIA               2688
    ##  9 BOWHALL RED MAPLE            2622
    ## 10 AKEBONO FLOWERING CHERRY     2384
    ## # … with 624 more rows
…
``` r
van_trees2
```

    ## # A tibble: 146,611 × 12
    ##    tree_id genus_name speci…¹ commo…² neigh…³ heigh…⁴ diame…⁵ date_pla…⁶ longi…⁷
    ##      <dbl> <chr>      <chr>   <chr>   <chr>     <dbl>   <dbl> <date>       <dbl>
    ##  1  149556 ULMUS      AMERIC… BRANDO… MARPOLE       2    10   1999-01-13   -123.
    ##  2  149563 ZELKOVA    SERRATA JAPANE… MARPOLE       4    10   1996-05-31   -123.
    ##  3  149579 STYRAX     JAPONI… JAPANE… KENSIN…       3     4   1993-11-22   -123.
    ##  4  149590 FRAXINUS   AMERIC… AUTUMN… KENSIN…       4    18   1996-04-29   -123.
    ##  5  149604 ACER       CAMPES… HEDGE … KENSIN…       2     9   1993-12-17   -123.
    ##  6  149616 PYRUS      CALLER… CHANTI… MARPOLE       2     5   NA           -123.
    ##  7  149617 ACER       PLATAN… COLUMN… KENSIN…       3    15   1993-12-16   -123.
    ##  8  149618 ACER       PLATAN… COLUMN… KENSIN…       3    14   1993-12-16   -123.
    ##  9  149619 ACER       PLATAN… COLUMN… KENSIN…       2    16   1993-12-16   -123.
    ## 10  149625 FRAXINUS   AMERIC… AUTUMN… KENSIN…       2     7.5 1993-12-03   -123.
    ## # … with 146,601 more rows, 3 more variables: latitude <dbl>,
    ## #   year_planted <dbl>, month_planted <dbl>, and abbreviated variable names
    ## #   ¹​species_name, ²​common_name, ³​neighbourhood_name, ⁴​height_range_id,
    ## #   ⁵​diameter, ⁶​date_planted, ⁷​longitude
…
    ## Warning in common_name == c("KWANZAN FLOWERING CHERRY", "PISSARD PLUM", : longer
    ## object length is not a multiple of shorter object length

    ## # A tibble: 4,714 × 5
    ##    tree_id common_name              neighbourhood_name  season_planted year_pl…¹
    ##      <dbl> <chr>                    <chr>               <chr>              <dbl>
    ##  1  121845 PISSARD PLUM             RENFREW-COLLINGWOOD Fall                1989
    ##  2  122000 KWANZAN FLOWERING CHERRY SUNSET              Fall                1989
    ##  3  122052 KWANZAN FLOWERING CHERRY SUNSET              Fall                1989
    ##  4  123091 KWANZAN FLOWERING CHERRY DUNBAR-SOUTHLANDS   Fall                1989
    ##  5  123198 KWANZAN FLOWERING CHERRY DUNBAR-SOUTHLANDS   Fall                1989
    ##  6  121857 PISSARD PLUM             RENFREW-COLLINGWOOD Fall                1989
    ##  7  122004 KWANZAN FLOWERING CHERRY SUNSET              Fall                1989
    ##  8  122032 PISSARD PLUM             DUNBAR-SOUTHLANDS   Fall                1989
    ##  9  122930 KWANZAN FLOWERING CHERRY SHAUGHNESSY         Fall                1989
    ## 10  123054 PISSARD PLUM             WEST POINT GREY     Fall                1989
    ## # … with 4,704 more rows, and abbreviated variable name ¹​year_planted
…
